<?xml version="1.0" standalone="no"?>
<!DOCTYPE svg PUBLIC "-//W3C//DTD SVG 1.1//EN" "http://www.w3.org/Graphics/SVG/1.1/DTD/svg11.dtd" >
<svg xmlns="http://www.w3.org/2000/svg">
<metadata>Generated by IcoMoon</metadata>
<defs>
<font id="icomoon" horiz-adv-x="1024">
<font-face units-per-em="1024" ascent="960" descent="-64" />
<missing-glyph horiz-adv-x="1024" />
<glyph unicode="&#x20;" d="" horiz-adv-x="512" />
<glyph unicode="&#xe600;" d="M1467.246 592.165c-43.154-68.974-149.065-83.31-149.065-83.31s51.566-14.555 123.173-14.555c-34.816-32.183-70.949-53.979-140.946-66.048-59.099-174.592-273.262-487.058-705.463-487.058-438.857 0-552.594 247.515-552.594 247.515s260.023-168.667 503.735 57.051c-157.038 29.989-119.15 119.662-64.878 122.441-192.585 43.52-195.218 146.871-84.041 155.063-165.303 76.215-192.439 146.871-67.877 149.65-276.261 231.205-10.825 217.527 387.511-76.361 52.005 208.823 162.597 356.498 284.379 356.498 121.929 0 84.041-46.299 0-65.317 165.815-19.895 270.775-175.104 304.274-298.203 67.438-7.534 128.439-5.047 161.792 2.633z" horiz-adv-x="1463" />
<glyph unicode="&#xe601;" d="M550.208 366.336c-104.704 74.56-143.872 109.76-76.8 168.768 66.944 59.136 119.936 106.944 119.936 216.704 0 109.696-90.688 165.952-90.688 165.952s65.536-9.856 100.544 9.92c34.816 19.648 50.176 32.32 50.176 32.32-64.128 0-266.496 0-333.44 0-67.072 0-252.672-76.032-252.672-253.248 0-177.344 192.704-215.232 262.4-212.416-39.040-47.872-5.632-91.584 15.36-114.048 20.992-22.4 16.64-29.44-8.384-29.44-25.152 0-334.848-3.264-334.848-225.088 0-221.76 411.648-227.904 547.008-108.352 135.296 119.616 105.92 274.432 1.408 348.928zM352 537.984c-166.080 0-241.408 388.224-46.016 388.224 152 5.632 266.496-388.224 46.016-388.224zM332.224-5.056c-137.856 0-211.84 68.864-211.84 171.648 0 102.592 100.416 153.344 288.896 153.344 51.008-39.36 142.208-87.232 142.208-182.912s-81.28-142.080-219.264-142.080z" horiz-adv-x="704" />
<glyph unicode="&#xe602;" d="M389.248 792.448h111.552v168.192h-142.592v-0.64c-187.2-6.72-225.6-111.808-228.992-222.592h-0.384v-116.8h-111.488v-168.32h111.488v-511.872h200.128v511.936h143.488l28.288 168.32h-171.776v104.448c0 37.184 24.768 67.328 60.288 67.328z" horiz-adv-x="512" />
<glyph unicode="&#xe603;" d="M960.813 902.716c-35.298 0.602-64.392-27.588-64.994-62.886l-0.241-18.251-576.211-154.383-27.287 67.102c-12.228 29.877-44.695 46.020-75.836 37.647l-154.443-41.382c-34.153-9.156-54.392-44.213-45.237-78.306 9.156-34.153 44.213-54.392 78.306-45.237l99.93 26.744 172.936-425.382c12.168-29.877 44.634-46.020 75.776-37.707l525.131 140.71c27.588 7.409 46.923 32.166 47.405 60.717l7.65 465.559c0.663 35.418-27.528 64.512-62.886 65.054zM577.054 537.57l123.543 33.069 16.565-61.741-123.543-33.129-16.565 61.801zM750.231 385.355l-123.543-33.129-16.565 61.801 123.543 33.069 16.565-61.741zM543.925 661.112l123.543 33.129 16.565-61.741-123.543-33.129-16.565 61.741zM343.642 607.443l138.481 37.105 16.565-61.801-130.771-34.997-24.275 59.693zM392.192 488.056l123 32.949 16.565-61.801-115.29-30.84-24.275 59.693zM440.742 368.61l107.64 28.853 16.565-61.801-99.93-26.744-24.275 59.693zM888.952 422.52l-76.92-20.661-16.565 61.801 94.569 25.359-1.084-66.5zM891.121 555.52l-112.218-30.057-16.565 61.741 129.928 34.816-1.144-66.5zM893.35 688.58l-147.576-39.575-16.504 61.801 165.225 44.273-1.144-66.5zM454.054 8.041c13.734-51.2 66.319-81.559 117.519-67.825s81.559 66.319 67.825 117.459c-13.734 51.2-66.319 81.559-117.459 67.825-51.26-13.734-81.559-66.319-67.885-117.459zM824.742 107.369c13.734-51.2 66.319-81.559 117.459-67.825 51.2 13.734 81.559 66.319 67.825 117.519s-66.319 81.559-117.519 67.825c-51.14-13.794-81.498-66.379-67.765-117.519z" />
</font></defs></svg>